{
    "KPackageStructure": "Plasma/LookAndFeel",
    "KPlugin": {
        "Authors": [
            {
                "Email": "langitketujuh.os@proton.me",
                "Name": "LangitKetujuh Design Team",
                "Name[ar]": "LangitKetujuh Design Team",
                "Name[az]": "LangitKetujuh Design Team",
                "Name[be]": "LangitKetujuh Design Team",
                "Name[bg]": "LangitKetujuh Design Team",
                "Name[ca@valencia]": "LangitKetujuh Design Team",
                "Name[ca]": "LangitKetujuh Design Team",
                "Name[cs]": "LangitKetujuh Design Team",
                "Name[da]": "LangitKetujuh Design Team",
                "Name[de]": "LangitKetujuh Design Team",
                "Name[en_GB]": "LangitKetujuh Design Team",
                "Name[eo]": "LangitKetujuh Design Team",
                "Name[es]": "LangitKetujuh Design Team",
                "Name[eu]": "LangitKetujuh Design Team",
                "Name[fi]": "LangitKetujuh Design Team",
                "Name[fr]": "LangitKetujuh Design Team",
                "Name[gl]": "LangitKetujuh Design Team",
                "Name[he]": "LangitKetujuh Design Team",
                "Name[hi]": "LangitKetujuh Design Team",
                "Name[hu]": "LangitKetujuh Design Team",
                "Name[ia]": "LangitKetujuh Design Team",
                "Name[id]": "LangitKetujuh Design Team",
                "Name[is]": "LangitKetujuh Design Team",
                "Name[it]": "LangitKetujuh Design Team",
                "Name[ja]": "LangitKetujuh Design Team",
                "Name[ka]": "LangitKetujuh Design Team",
                "Name[ko]": "LangitKetujuh Design Team",
                "Name[lt]": "LangitKetujuh Design Team",
                "Name[nl]": "LangitKetujuh Design Team",
                "Name[nn]": "LangitKetujuh Design Team",
                "Name[pl]": "LangitKetujuh Design Team",
                "Name[pt]": "LangitKetujuh Design Team",
                "Name[pt_BR]": "LangitKetujuh Design Team",
                "Name[ro]": "LangitKetujuh Design Team",
                "Name[ru]": "LangitKetujuh Design Team",
                "Name[sa]": "LangitKetujuh Design Team",
                "Name[sk]": "LangitKetujuh Design Team",
                "Name[sl]": "LangitKetujuh Design Team",
                "Name[sv]": "LangitKetujuh Design Team",
                "Name[ta]": "LangitKetujuh Design Team",
                "Name[tr]": "LangitKetujuh Design Team",
                "Name[uk]": "LangitKetujuh Design Team",
                "Name[vi]": "LangitKetujuh Design Team",
                "Name[x-test]": "xxLangitKetujuh Design Team",
                "Name[zh_CN]": "LangitKetujuh Design Team",
                "Name[zh_TW]": "LangitKetujuh Design Team"
            }
        ],
        "Category": "",
        "Description": "LangitKetujuh Unity Theme",
        "Description[ar]": "LangitKetujuh Unity Theme",
        "Description[az]": "LangitKetujuh Unity Theme",
        "Description[be]": "LangitKetujuh Unity Theme",
        "Description[bg]": "LangitKetujuh Unity Theme",
        "Description[ca@valencia]": "LangitKetujuh Unity Theme",
        "Description[ca]": "LangitKetujuh Unity Theme",
        "Description[cs]": "LangitKetujuh Unity Theme",
        "Description[da]": "LangitKetujuh Unity Theme",
        "Description[de]": "LangitKetujuh Unity Theme",
        "Description[en_GB]": "LangitKetujuh Unity Theme",
        "Description[eo]": "LangitKetujuh Unity Theme",
        "Description[es]": "LangitKetujuh Unity Theme",
        "Description[et]": "LangitKetujuh Unity Theme",
        "Description[eu]": "LangitKetujuh Unity Theme",
        "Description[fi]": "LangitKetujuh Unity Theme",
        "Description[fr]": "LangitKetujuh Unity Theme",
        "Description[gl]": "LangitKetujuh Unity Theme",
        "Description[he]": "LangitKetujuh Unity Theme",
        "Description[hi]": "LangitKetujuh Unity Theme",
        "Description[hu]": "LangitKetujuh Unity Theme",
        "Description[ia]": "LangitKetujuh Unity Theme",
        "Description[id]": "LangitKetujuh Unity Theme",
        "Description[is]": "LangitKetujuh Unity Theme",
        "Description[it]": "LangitKetujuh Unity Theme",
        "Description[ja]": "LangitKetujuh Unity Theme",
        "Description[ka]": "LangitKetujuh Unity Theme",
        "Description[ko]": "LangitKetujuh Unity Theme",
        "Description[lt]": "LangitKetujuh Unity Theme",
        "Description[nl]": "LangitKetujuh Unity Theme",
        "Description[nn]": "LangitKetujuh Unity Theme",
        "Description[pa]": "LangitKetujuh Unity Theme",
        "Description[pl]": "LangitKetujuh Unity Theme",
        "Description[pt]": "LangitKetujuh Unity Theme",
        "Description[pt_BR]": "LangitKetujuh Unity Theme",
        "Description[ro]": "LangitKetujuh Unity Theme",
        "Description[ru]": "LangitKetujuh Unity Theme",
        "Description[sa]": "LangitKetujuh Unity Theme",
        "Description[sk]": "LangitKetujuh Unity Theme",
        "Description[sl]": "LangitKetujuh Unity Theme",
        "Description[sv]": "LangitKetujuh Unity Theme",
        "Description[ta]": "LangitKetujuh Unity Theme",
        "Description[tr]": "LangitKetujuh Unity Theme",
        "Description[uk]": "LangitKetujuh Unity Theme",
        "Description[vi]": "LangitKetujuh Unity Theme",
        "Description[x-test]": "LangitKetujuh Unity Theme",
        "Description[zh_CN]": "LangitKetujuh Unity Theme",
        "Description[zh_TW]": "LangitKetujuh Unity Theme",
        "Id": "org.langitketujuh.unity.desktop",
        "License": "GPLv2+",
        "Name": "LangitKetujuh Unity",
        "Name[ar]": "LangitKetujuh Unity",
        "Name[az]": "LangitKetujuh Unity",
        "Name[be]": "LangitKetujuh Unity",
        "Name[bg]": "LangitKetujuh Unity",
        "Name[bs]": "LangitKetujuh Unity",
        "Name[ca@valencia]": "LangitKetujuh Unity",
        "Name[ca]": "LangitKetujuh Unity",
        "Name[cs]": "LangitKetujuh Unity",
        "Name[da]": "LangitKetujuh Unity",
        "Name[de]": "LangitKetujuh Unity",
        "Name[el]": "LangitKetujuh Unity",
        "Name[en_GB]": "LangitKetujuh Unity",
        "Name[eo]": "LangitKetujuh Unity",
        "Name[es]": "LangitKetujuh Unity",
        "Name[et]": "LangitKetujuh Unity",
        "Name[eu]": "LangitKetujuh Unity",
        "Name[fi]": "LangitKetujuh Unity",
        "Name[fr]": "LangitKetujuh Unity",
        "Name[gl]": "LangitKetujuh Unity",
        "Name[he]": "LangitKetujuh Unity",
        "Name[hi]": "LangitKetujuh Unity",
        "Name[hu]": "LangitKetujuh Unity",
        "Name[ia]": "LangitKetujuh Unity",
        "Name[id]": "LangitKetujuh Unity",
        "Name[is]": "LangitKetujuh Unity",
        "Name[it]": "LangitKetujuh Unity",
        "Name[ja]": "LangitKetujuh Unity",
        "Name[ka]": "LangitKetujuh Unity",
        "Name[ko]": "LangitKetujuh Unity",
        "Name[lt]": "LangitKetujuh Unity",
        "Name[ml]": "LangitKetujuh Unity",
        "Name[nb]": "LangitKetujuh Unity",
        "Name[nds]": "LangitKetujuh Unity",
        "Name[nl]": "LangitKetujuh Unity",
        "Name[nn]": "LangitKetujuh Unity",
        "Name[pa]": "LangitKetujuh Unity",
        "Name[pl]": "LangitKetujuh Unity",
        "Name[pt]": "LangitKetujuh Unity",
        "Name[pt_BR]": "LangitKetujuh Unity",
        "Name[ro]": "LangitKetujuh Unity",
        "Name[ru]": "LangitKetujuh Unity",
        "Name[sa]": "LangitKetujuh Unity",
        "Name[sk]": "LangitKetujuh Unity",
        "Name[sl]": "LangitKetujuh Unity",
        "Name[sr@ijekavian]": "LangitKetujuh Unity",
        "Name[sr@ijekavianlatin]": "LangitKetujuh Unity",
        "Name[sr@latin]": "LangitKetujuh Unity",
        "Name[sr]": "LangitKetujuh Unity",
        "Name[sv]": "LangitKetujuh Unity",
        "Name[ta]": "LangitKetujuh Unity",
        "Name[tg]": "LangitKetujuh Unity",
        "Name[tr]": "LangitKetujuh Unity",
        "Name[uk]": "LangitKetujuh Unity",
        "Name[vi]": "LangitKetujuh Unity",
        "Name[x-test]": "LangitKetujuh Unity",
        "Name[zh_CN]": "LangitKetujuh Unity",
        "Name[zh_TW]": "LangitKetujuh Unity",
        "Website": "https://langitketujuh.id"
    },
    "Keywords": "Desktop;Workspace;Appearance;Look and Feel;Logout;Lock;Suspend;Shutdown;Hibernate;",
    "Keywords[ar]": "سطح المكتب;مساحة العمل;المظهر;المظهر والإحساس;اخرج;Lock;علق;أطفئ;أسبت;",
    "Keywords[ast]": "Escritoriu;Estaya de trabayu;Aspeutu;Estilu;Aspeutu y Estilu;Zarrar sesión;Zarru de sesión;Bloquiar;Bloquéu;Suspender;Suspensión;Apagar;Apagáu;Ivernar;Ivernación;Hibernar;Hibernación;",
    "Keywords[az]": "iş masası;iş mühiti;iş mühiti;vizual təqdimat;çıxış;seansdan çıxış;kilidləmə;işi dayandırmaq;işin bitirilməsi;söndürmək;yuxu rejimi;gözləmə rejimi;",
    "Keywords[ca@valencia]": "Escriptori;Espai de treball;Aparença;Aspecte i comportament;Eixida;Bloqueig;Suspensió;Parada;Hibernació;",
    "Keywords[ca]": "Escriptori;Espai de treball;Aparença;Aspecte i comportament;Sortida;Bloqueig;Suspensió;Aturada;Hibernació;",
    "Keywords[da]": "Skrivebord;Desktop;Arbejdsområde;Udseende;log ud;Lås;Suspendér;Nedlukning;dvale;",
    "Keywords[de]": "Desktop;Arbeitsfläche;Arbeitsbereich;Erscheinungsbild;Erscheinungsbild und Verhalten;Abmelden;Sperren;Standby;Ruhezustand;Tiefschlaf;Herunterfahren;",
    "Keywords[el]": "Επιφάνεια εργασίας;Χώρος εργασίας;Εμφάνιση;Όψη και Αίσθηση;Αποσύνδεση;Κλείδωμα;Αναστολή;Τερματισμός;Νάρκη;",
    "Keywords[en_GB]": "Desktop;Workspace;Appearance;Look and Feel;Logout;Lock;Suspend;Shutdown;Hibernate;",
    "Keywords[es]": "Escritorio;Espacio de trabajo;Apariencia;Aspecto visual;Cerrar sesión;Bloquear;Suspender;Apagar;Hibernar;",
    "Keywords[et]": "töölaud;töötsoon;välimus;väljalogimine;lukustamine;seiskamine;väljalülitamine;talveuni;uni;",
    "Keywords[eu]": "mahaigain;lan-eremu;lan-gune;itxura;itxura eta izaera;saioa-amaitu;giltzatu;blokeatu;eseki;itzali;hibernatu;",
    "Keywords[fi]": "Työpöytä;Työtila;Ulkoasu;Ulkoasu ja tuntuma;Kirjaudu ulos;Lukitse;Valmiustila;Sammuta;Lepotila",
    "Keywords[fr]": "bureau;espace de travail;apparence;déconnexion;verrouillage;suspension;arrêt;hibernation;",
    "Keywords[gl]": "Escritorio;Espazo de traballo;Aparencia;Aparencia e Comportamento;Saír;Trancar;Bloquear;Suspender;Apagar;Hibernar;",
    "Keywords[hi]": "डेस्कटॉप; कार्यक्षेत्र; दिखावट; रंगरूप और अनुभव; लॉगआउट; तालाबंद; निलंबन; बंद करना;सुप्तावस्था;",
    "Keywords[hu]": "Asztal;Munkaterület;Megjelenés;Kinézet;Kijelentkezés;Zárolás;Felfüggesztés;Leállítás;Hibernálás;",
    "Keywords[ia]": "Scriptorio;Spatio de labor;Apparentia;Look and Feel;Logout;Lock;Suspende;Shutdown;Hibernate;",
    "Keywords[id]": "Desktop;Workspace;Penampilan;Nuansa dan Suasana,Keluar log;Kunci;Suspensi;Mematikan;Hibernasi;",
    "Keywords[is]": "skjáborð;vinnusvæði;útlit;ásýnd og hegðun;Útskráning;Læsing;setja í bið;slökkva;svæfa;",
    "Keywords[it]": "desktop;spazio di lavoro;aspetto;uscita;blocco;sospensione;spegnimento;ibernazione;",
    "Keywords[ja]": "デスクトップ;ワークスペース;外観;外観と挙動;ログアウト;ロック;サスペンド;シャットダウン;休止状態;",
    "Keywords[ko]": "Desktop;Workspace;Appearance;Look and Feel;Logout;Lock;Suspend;Shutdown;Hibernate;데스크톱;작업공간;모양;로그아웃;잠금;대기모드;종료;끄기;최대절전모드;",
    "Keywords[lt]": "Darbalaukis;Darbo sritis;Erdvė;Erdve;Isvaizda;Isvaizda ir turinys;Išvaizda;Išvaizda ir turinys;Atsijungti;Užrakinti;Uzrakinti;Pristabdyti;Sulaikyti;Užmigdyti;Uzmigdyti;Isjungti;Išjungti;Hibernuoti;",
    "Keywords[ml]": "ഡെസ്ക്ടോപ്പ്;വർക്ക്സ്പേസ്;ബാഹ്യരൂപം;രൂപവും ഭാവവും;പുറത്തിറങ്ങുക;മയങ്ങുക;;നിഷ്ക്രിയമാക്കുക;അടയ്ക്കുക;",
    "Keywords[nl]": "Bureaublad;Werkruimte;Uiterlijk;Uiterlijk en gedrag;Afmelden;Vergrendelen;Onderbreken;Afsluiten;Slapen naar schijf;",
    "Keywords[nn]": "skrivebord;arbeidsområde;arbeidsflate;ustjånad;åtferd;utlogging;logga ut;låsa;låsing;pausemodus;kvilemodus;dvalemodus;avslutting;",
    "Keywords[pa]": "ਡੈਸਕਟਾਪ;ਵਰਕਸਪੇਸ;ਦਿੱਖ;ਲਾਗਆਉਟ;ਲਾਕ;ਸਸਪੈਂਡ;ਬੰਦ ਕਰੋ;ਹਾਈਬਰਨੇਟ;",
    "Keywords[pl]": "Pulpit;Przestrzeń robocza;Wygląd;Wygląd i Odczucia;Wylogowanie;Zablokowanie ;Wstrzymanie;Zamknięcie;Hibernowanie;Wrażenia;",
    "Keywords[pt]": "Ecrã;Área de Trabalho;Aparência;Aparência e Comportamento;Encerrar;Bloquear;Suspender;Desligar;Hibernar;",
    "Keywords[pt_BR]": "Área de trabalho;Espaço de trabalho;Aparência;Aparência e Comportamento;Encerrar sessão;Bloquear;Suspender;Desligar;Hibernar;",
    "Keywords[ro]": "birou,spațiu de lucru,aspect,comportament,ieșire,blocare,suspendare,suspendă,blochează,oprește,oprire,hibernare,deconectare",
    "Keywords[ru]": "Desktop;Workspace;Appearance;Look and Feel;Logout;Lock;Suspend;Shutdown;Hibernate;рабочий стол;рабочая среда;внешний вид;визуальное представление;выход;завершение сеанса;блокировка;приостановка работы;завершение работы;выключение;спящий режим;ждущий режим;",
    "Keywords[sk]": "Plocha;pracovný priestor;vzhľad;vzhľad a dojem;odhlásiť;zamknúť;uspať;vypnúť;hibernovať;",
    "Keywords[sl]": "Namizje;delovni prostor;videz;videz in občutek;odjava;zaklep;pripravljenost;izklop;mirovanje;",
    "Keywords[sr@ijekavian]": "Desktop;Workspace;Appearance;Look and Feel;Logout;Lock;Suspend;Shutdown;Hibernate;површ;радни простор;изглед;осећај;одјављивање;закључавање;суспендовање;гашење;хибернисање;",
    "Keywords[sr@ijekavianlatin]": "Desktop;Workspace;Appearance;Look and Feel;Logout;Lock;Suspend;Shutdown;Hibernate;površ;radni prostor;izgled;osećaj;odjavljivanje;zaključavanje;suspendovanje;gašenje;hibernisanje;",
    "Keywords[sr@latin]": "Desktop;Workspace;Appearance;Look and Feel;Logout;Lock;Suspend;Shutdown;Hibernate;površ;radni prostor;izgled;osećaj;odjavljivanje;zaključavanje;suspendovanje;gašenje;hibernisanje;",
    "Keywords[sr]": "Desktop;Workspace;Appearance;Look and Feel;Logout;Lock;Suspend;Shutdown;Hibernate;површ;радни простор;изглед;осећај;одјављивање;закључавање;суспендовање;гашење;хибернисање;",
    "Keywords[sv]": "Skrivbord;Arbetsområde;Utseende;Utseende och känsla;Utloggning;Lås;Viloläge;Avstängning;Dvala;",
    "Keywords[ta]": "Desktop;Workspace;Appearance;Look and Feel;Logout;Lock;Suspend;Shutdown;Hibernate; பணிமேடை; தோற்றம்; பார்வை; வெளியேறு; பூட்டு; தூக்கம்; தூங்கு; நிறுத்து;",
    "Keywords[tr]": "Masaüstü;Çalışma Alanı;Görünüm;Görünüm ve Doku;Çık;Kilitle;Askıya Al;Kapat;Uyku;",
    "Keywords[uk]": "Desktop;Workspace;Appearance;Look and Feel;Logout;Lock;Suspend;Shutdown;Hibernate;стільниця;робочий простір;воркспейс;вигляд;вигляд і поведінка;вихід;вийти;заблокувати;замкнути;призупинити;вимкнути;приспати;",
    "Keywords[vi]": "Desktop;Workspace;Appearance;Look and Feel;Logout;Lock;Suspend;Shutdown;Hibernate;Bàn làm việc;Không gian làm việc;Diện mạo;Nhìn và Cảm;Đăng xuất;Khoá;Tạm ngừng;Tắt;Ngủ đông;",
    "Keywords[x-test]": "xxDesktopxx;xxWorkspacexx;xxAppearancexx;xxLook and Feelxx;xxLogoutxx;xxLockxx;xxSuspendxx;xxShutdownxx;xxHibernatexx;",
    "Keywords[zh_CN]": "桌面;工作空间;外观;观感;注销;锁定;待机;关机;休眠;",
    "Keywords[zh_TW]": "Desktop;Workspace;Appearance;Look and Feel;Logout;Lock;Suspend;Shutdown;Hibernate;",
    "X-Plasma-APIVersion": "2"
}
