{
    "KPackageStructure": "Plasma/LayoutTemplate",
    "KPlugin": {
        "Authors": [
            {
                "Email": "langitketujuh.os@proton.me",
                "Name": "LangitKetujuh Design Team"
            }
        ],
        "Category": "",
        "EnabledByDefault": true,
        "Id": "org.langitketujuh.plus.defaultDock",
        "License": "GPL",
        "Name": "LangitKetujuh Plus Dock",
        "Version": "2.0",
        "Website": "https://langitketujuh.id"
    },
    "X-Plasma-ContainmentCategories": [
        "panel"
    ],
    "X-Plasma-Shell": "plasmashell"
}
